2,segmentImage,310,3,mutator_loop_perforation_operator,0
2,segmentImage,311,5,mutator_loop_perforation_operator,0
2,segmentImage,312,7,mutator_loop_perforation_operator,0
2,segmentImage,318,5,mutator_loop_perforation_operator,0
2,segmentImage,324,5,mutator_loop_perforation_operator,0
2,segmentImage,325,7,mutator_loop_perforation_operator,0
2,segmentImage,332,5,mutator_loop_perforation_operator,0
2,segmentImage,341,3,mutator_loop_perforation_operator,0
2,segmentImage,342,5,mutator_loop_perforation_operator,0
