[
  {
    "command": "clang++ -c  ../chimera/output/mutants/segmentation.c/2/segmentation.c -I../src/", 
    "directory": "/home/ntonjeta/Approximate/examples/kmeans/src", 
    "file": "../chimera/output/mutants/segmentation.c/2/segmentation.c"
  }
]
